{
  "project_info": {
    "project_number": "239013757243",
    "project_id": "golden-element---rac",
    "storage_bucket": "golden-element---rac.appspot.com"
  },
  "client": [
    {
      "client_info": {
        "mobilesdk_app_id": "1:239013757243:android:eef55284fee1216c0e771e",
        "android_client_info": {
          "package_name": "com.goldenelement.thegoldenelementrac"
        }
      },
      "oauth_client": [
        {
          "client_id": "239013757243-spv1ktu85uv4el3et4h1fg04jm9q38g9.apps.googleusercontent.com",
          "client_type": 3
        }
      ],
      "api_key": [
        {
          "current_key": "AIzaSyC-cMxHqkZF3ff5Sjttzy7IvW3ElWQAOWs"
        }
      ],
      "services": {
        "appinvite_service": {
          "other_platform_oauth_client": [
            {
              "client_id": "239013757243-spv1ktu85uv4el3et4h1fg04jm9q38g9.apps.googleusercontent.com",
              "client_type": 3
            }
          ]
        }
      }
    }
  ],
  "configuration_version": "1"
}